{
  "axes": [
    {
      "id" : "x",
      "name" : "x",
      "est" : {
        "stepper" : 0,
        "reversed": false
      },
      "geo": {
        "length" : 0.400,
        "speed_max": 0.040,
        "accel_max": 0.015
      },
      "stepper": {
        "full" : 200,
        "micro": 8,
        "lead": 0.010
      },
      "align": {
        "alignable" : true,
        "bottom_end_sensor" : "x_bottom_end"
      },
      "manual": {
        "movable" : true,
        "align_required": true
      }
    },
    {
      "id" : "y",
      "name" : "y",
      "est" : {
        "stepper" : 1,
        "reversed": false
      },
      "geo": {
        "length" : 0.320,
        "speed_max": 0.040,
        "accel_max": 0.015
      },
      "stepper": {
        "full" : 200,
        "micro": 8,
        "lead": 0.010
      },
      "align": {
        "alignable" : true,
        "bottom_end_sensor" : "y_bottom_end"
      },
      "manual": {
        "movable" : true,
        "align_required": true
      }
    },
    {
      "id" : "z",
      "name" : "z",
      "est" : {
        "stepper" : 2,
        "reversed": true
      },
      "geo": {
        "length" : 0.110,
        "speed_max": 0.010,
        "accel_max": 0.008
      },
      "stepper": {
        "full" : 200,
        "micro": 8,
        "lead": 0.010
      },
      "align": {
        "alignable" : true,
        "top_end_sensor" : "z_top_end"
      },
      "manual": {
        "movable" : true,
        "align_required": true
      }
    }
  ],

  "sensors": {
    "bool" : [
      {
        "id" : "x_bottom_end",
        "name" : "X bottom end",
        "est" : {
          "sensor" : 3,
          "inverted": true
        }
      },
      {
        "id" : "y_bottom_end",
        "name" : "Y bottom end",
        "est" : {
          "sensor" : 2,
          "inverted": true
        }
      },
      {
        "id" : "z_top_end",
        "name" : "Z top end",
        "est" : {
          "sensor" : 0,
          "inverted": true
        }
      }
    ]
  },

  "controls": {
    "bool" : [
      {
        "id" : "driver",
        "name" : "Stepper driver",
        "est" : {
          "control" : 12,
          "inverted": false
        },
        "user_settable" : false,
        "warm_up_duration" : 3.0,
        "cool_down_duration" : 3.0
      },
      {
        "id" : "cutter",
        "name" : "Cutter",
        "est" : {
          "control" : 0,
          "inverted": false
        },
        "user_settable" : true,
        "warm_up_duration" : 5.0,
        "cool_down_duration" : 5.0
      }
    ],
    "i8" : [
      {
        "id" : "pwm_0_clock_select",
        "name" : "PWM_0 clock select",
        "est" : {
          "control" : 0
        },
        "init_value" : 4
      }
    ],
    "i32" : [
      {
        "id" : "pwm_0_period_duty_select",
        "name" : "PWM_0 period and duty select",
        "est" : {
          "control" : 0
        },
        "init_value" : 3440666250
      }
    ]
  },

  "est" : {
    "usb_device": {
       "iString" : {
         "Manufacturer" : "^STech$",
         "Product" : "^Stepper-4:1$"
       }
    },
    "sensors" : {
      "i1" : [
        {},
        {},
        {},
        {},
        {},
        {},
        {},
        {},
        {},
        {},
        {},
        {}
      ]
    },
    "controls" : {
      "i1" : [
        {},
        {},
        {},
        {},
        {},
        {},
        {},
        {},
        {},
        {},
        {},
        {},
        {},
        {},
        {},
        {}
      ],
      "i8" : [
        {},
        {},
        {},
        {}
      ],
      "i32" : [
        {},
        {},
        {},
        {}
      ]
    },
    "steppers" : [
      {
        "type" : "Motor",
        "steps_queue_capacity" : 4096,
        "tick_frequency" : 42000000
      },
      {
        "type" : "Motor",
        "steps_queue_capacity" : 4096,
        "tick_frequency" : 42000000
      },
      {
        "type" : "Motor",
        "steps_queue_capacity" : 4096,
        "tick_frequency" : 42000000
      },
      {
        "type" : "Motor",
        "steps_queue_capacity" : 4096,
        "tick_frequency" : 42000000
      },
      {
        "type" : "Controls",
        "steps_queue_capacity" : 4096,
        "tick_frequency" : 42000000
      }
    ]
  }
}
